{
  "project_info": {
    "project_number": "764005631485",
    "firebase_url": "https://ejemplo2tdd.firebaseio.com",
    "project_id": "ejemplo2tdd",
    "storage_bucket": "ejemplo2tdd.appspot.com"
  },
  "client": [
    {
      "client_info": {
        "mobilesdk_app_id": "1:764005631485:android:a9d4c78201471351",
        "android_client_info": {
          "package_name": "cl.salemlabs.ejemplo2tdd"
        }
      },
      "oauth_client": [
        {
          "client_id": "764005631485-qkpemiv5mn52ngrd5p8h8miqvdbqjr1q.apps.googleusercontent.com",
          "client_type": 1,
          "android_info": {
            "package_name": "cl.salemlabs.ejemplo2tdd",
            "certificate_hash": "e689a95d13959e9e411edd61ee690272b59b076b"
          }
        },
        {
          "client_id": "764005631485-nn5kdnm120ksiv5pel6nh0un0ohfck03.apps.googleusercontent.com",
          "client_type": 3
        }
      ],
      "api_key": [
        {
          "current_key": "AIzaSyB559SYcOHTH4afZHEXiR7Xgif-TKqxO_o"
        }
      ],
      "services": {
        "analytics_service": {
          "status": 1
        },
        "appinvite_service": {
          "status": 2,
          "other_platform_oauth_client": [
            {
              "client_id": "764005631485-nn5kdnm120ksiv5pel6nh0un0ohfck03.apps.googleusercontent.com",
              "client_type": 3
            }
          ]
        },
        "ads_service": {
          "status": 2
        }
      }
    }
  ],
  "configuration_version": "1"
}